module kshmirko.com/dubovik

go 1.17

require (
	golang.org/x/mod v0.4.2 // indirect
	golang.org/x/sys v0.0.0-20210809222454-d867a43fc93e // indirect
	golang.org/x/tools v0.1.7 // indirect
	golang.org/x/xerrors v0.0.0-20200804184101-5ec99f83aff1 // indirect
	gonum.org/v1/gonum v0.9.3
)
